R539663C874387
R375938C791818
ZPYY867135
R388295C803168
AOHRK202894
R459358C856255
R449508C635292
R787779C828521
OXQX154368
AUJOG615083
R311906C151856
FGFJ271010
R713630C950011
R73240C687969
UUTA840943
JMAV238746
R667475C67258
R594373C493714
R758277C205048
R949062C228589
R334545C891226
AUARV636264
R151513C864844
AUEZI913882
ACXWA312434
AGDTS251173
R289728C944402
R662516C216917
UVQB617396
R454803C80922
R144373C245021
R344415C948551
BDFND112786
CNJY970780
